%YAML 1.1
%TAG !u! tag:unity3d.com,2011:
--- !u!114 &11400000
MonoBehaviour:
  m_ObjectHideFlags: 0
  m_CorrespondingSourceObject: {fileID: 0}
  m_PrefabInstance: {fileID: 0}
  m_PrefabAsset: {fileID: 0}
  m_GameObject: {fileID: 0}
  m_Enabled: 1
  m_EditorHideFlags: 0
  m_Script: {fileID: 11500000, guid: f337a6f4305b77e43942d7b90ff60204, type: 3}
  m_Name: BUWANA_QUEST6
  m_EditorClassIdentifier: 
  title: BUWANA 6
  description: Setelah berkeliling di salah satu kawasan di Buwana dan berbincang
    dengan beberapa orang, Jono sempat untuk mendapatkan pengetahuan baru mengenai
    Tembung Krama dan ia berniat membaginya dengan Mas Teja, tentu saja lewat permainan
    Tebak Kata.
  experience: 10
  estimatedTime: 40
  isActive: 0
  levelScene: BUWANA_QUIZ_STORY6
  goal: {fileID: 0}
