%YAML 1.1
%TAG !u! tag:unity3d.com,2011:
--- !u!114 &11400000
MonoBehaviour:
  m_ObjectHideFlags: 0
  m_CorrespondingSourceObject: {fileID: 0}
  m_PrefabInstance: {fileID: 0}
  m_PrefabAsset: {fileID: 0}
  m_GameObject: {fileID: 0}
  m_Enabled: 1
  m_EditorHideFlags: 0
  m_Script: {fileID: 11500000, guid: f337a6f4305b77e43942d7b90ff60204, type: 3}
  m_Name: BUWANA_1_QUEST
  m_EditorClassIdentifier: 
  title: BUWANA 1
  description: Ketika melakukan perjalanan menjelajahi daerah Buwana, Mas Teja dan
    Jono merasa lapar dan berniat makan disebuah tempat makan. Disana mereka bertemu
    dengan seorang pria yang sedang bingung akan sebuah surat, Mas Teja dan Joni
    memutuskan membantunya, untuk mengatur kembali kata-kata yang berantakan dalam
    surat tersebut.
  experience: 10
  estimatedTime: 10
  isActive: 0
  levelScene: BUWANA_1_SCRAMBLE_STORY
  goal: {fileID: 0}
