%YAML 1.1
%TAG !u! tag:unity3d.com,2011:
--- !u!114 &11400000
MonoBehaviour:
  m_ObjectHideFlags: 0
  m_CorrespondingSourceObject: {fileID: 0}
  m_PrefabInstance: {fileID: 0}
  m_PrefabAsset: {fileID: 0}
  m_GameObject: {fileID: 0}
  m_Enabled: 1
  m_EditorHideFlags: 0
  m_Script: {fileID: 11500000, guid: f337a6f4305b77e43942d7b90ff60204, type: 3}
  m_Name: BUWANA_2_QUEST
  m_EditorClassIdentifier: 
  title: BUWANA 2
  description: Mas Teja dan Jono yang sedang berjalan melewati salah satu kawasan
    di daerah Buwana, bertemu dengan seorang pria yang tiba-tiba menghampiri mereka
    dan meminta pertolongan, Mas Teja dan Jono yang cukup kaget mencoba untuk membantu
    orang tersebut, untuk mengatur kembali kata-kata di dalamnya.
  experience: 10
  estimatedTime: 10
  isActive: 0
  levelScene: BUWANA_2_SCRAMBLE_STORY
  goal: {fileID: 0}
