%YAML 1.1
%TAG !u! tag:unity3d.com,2011:
--- !u!114 &11400000
MonoBehaviour:
  m_ObjectHideFlags: 0
  m_CorrespondingSourceObject: {fileID: 0}
  m_PrefabInstance: {fileID: 0}
  m_PrefabAsset: {fileID: 0}
  m_GameObject: {fileID: 0}
  m_Enabled: 1
  m_EditorHideFlags: 0
  m_Script: {fileID: 11500000, guid: 8a1e74f926482f145b4fbb2906de8afa, type: 3}
  m_Name: Gudang
  m_EditorClassIdentifier: 
  nameIndo: Gudang
  nameJawa: Gudhang
  image: {fileID: 21300000, guid: 4ca6c6a2cc0202244968be6bd078d3e3, type: 3}
  indoSfx: {fileID: 8300000, guid: 057235cc05a78f2438add4d4a480951b, type: 3}
  jawaSfx: {fileID: 8300000, guid: 057235cc05a78f2438add4d4a480951b, type: 3}
