%YAML 1.1
%TAG !u! tag:unity3d.com,2011:
--- !u!114 &11400000
MonoBehaviour:
  m_ObjectHideFlags: 0
  m_CorrespondingSourceObject: {fileID: 0}
  m_PrefabInstance: {fileID: 0}
  m_PrefabAsset: {fileID: 0}
  m_GameObject: {fileID: 0}
  m_Enabled: 1
  m_EditorHideFlags: 0
  m_Script: {fileID: 11500000, guid: 8a1e74f926482f145b4fbb2906de8afa, type: 3}
  m_Name: Kerbau
  m_EditorClassIdentifier: 
  nameIndo: Kerbau
  nameJawa: Gudel
  image: {fileID: 21300000, guid: 6b2f4b4f084b8434a81150eb95776a79, type: 3}
  indoSfx: {fileID: 8300000, guid: ae314fe3b9b4b9743a8690f88a172d9c, type: 3}
  jawaSfx: {fileID: 8300000, guid: d86167b19c6e5ac4dab559c7a3bae7b4, type: 3}
