%YAML 1.1
%TAG !u! tag:unity3d.com,2011:
--- !u!114 &11400000
MonoBehaviour:
  m_ObjectHideFlags: 0
  m_CorrespondingSourceObject: {fileID: 0}
  m_PrefabInstance: {fileID: 0}
  m_PrefabAsset: {fileID: 0}
  m_GameObject: {fileID: 0}
  m_Enabled: 1
  m_EditorHideFlags: 0
  m_Script: {fileID: 11500000, guid: 8a1e74f926482f145b4fbb2906de8afa, type: 3}
  m_Name: Telinga
  m_EditorClassIdentifier: 
  nameIndo: Telinga
  nameJawa: Kuping
  image: {fileID: 10917, guid: 0000000000000000f000000000000000, type: 0}
  indoSfx: {fileID: 8300000, guid: 5c3b8eb132a180a45893c63c4deda4cd, type: 3}
  jawaSfx: {fileID: 8300000, guid: 4244199d444ea9547b0325ebf0ee6ff2, type: 3}
